<svg id="Group_7" data-name="Group 7" xmlns="http://www.w3.org/2000/svg" width="81" height="110" viewBox="0 0 81 110">
  <path id="Fill_1" data-name="Fill 1" d="M27.693,77a1.859,1.859,0,0,1-1.6-.91L14.289,55.99,3.046,65.557a1.836,1.836,0,0,1-1.2.442,1.857,1.857,0,0,1-.77-.167A1.831,1.831,0,0,1,0,64.166V1.834A1.848,1.848,0,0,1,1.844,0a1.862,1.862,0,0,1,1.31.536l44.308,44a1.834,1.834,0,0,1-1.307,3.131H30.905L42.211,66.91a1.8,1.8,0,0,1,.189,1.4,1.829,1.829,0,0,1-.868,1.119L28.608,76.758A1.846,1.846,0,0,1,27.693,77ZM14.77,51.333a1.683,1.683,0,0,1,.306.026,1.853,1.853,0,0,1,1.289.884l12,20.43,9.71-5.514L26.1,46.758A1.833,1.833,0,0,1,27.693,44h14L3.693,6.26V60.181l9.877-8.4A1.84,1.84,0,0,1,14.77,51.333Z" transform="translate(33 33)" fill="#2f2f2f"/>
  <path id="Fill_3" data-name="Fill 3" d="M20.263,66a1.888,1.888,0,0,1-.822-.19A34.517,34.517,0,0,1,0,34.731a35,35,0,0,1,70,0A34.408,34.408,0,0,1,68.154,45.8a1.839,1.839,0,0,1-3.489-1.163A31,31,0,0,0,35,3.656,31.231,31.231,0,0,0,3.684,34.731a30.879,30.879,0,0,0,17.4,27.8A1.828,1.828,0,0,1,20.263,66" fill="#2f2f2f"/>
  <path id="Fill_5" data-name="Fill 5" d="M12.233,38a1.94,1.94,0,0,1-.831-.189A19.811,19.811,0,0,1,0,19.958C0,8.952,9.2,0,20.5,0S41,8.952,41,19.958a19.567,19.567,0,0,1-1.085,6.358,1.874,1.874,0,0,1-2.363,1.143,1.805,1.805,0,0,1-1.174-2.3,15.984,15.984,0,0,0,.895-5.2A16.573,16.573,0,0,0,20.5,3.629,16.571,16.571,0,0,0,3.727,19.958a16.206,16.206,0,0,0,9.337,14.6,1.8,1.8,0,0,1,.835,2.435A1.865,1.865,0,0,1,12.233,38" transform="translate(14 15)" fill="#2f2f2f"/>
</svg>
