<svg xmlns="http://www.w3.org/2000/svg" width="77.258" height="69.5" viewBox="0 0 77.258 69.5">
  <g id="Group_424" data-name="Group 424" transform="translate(-384 -2305)">
    <g id="Group_421" data-name="Group 421" transform="translate(404.392 2305)">
      <path id="Path_319" data-name="Path 319" d="M426.33,2346.068a1.579,1.579,0,1,1,0-3.159,4.745,4.745,0,0,0,4.739-4.739v-18.954a1.59,1.59,0,0,1,.461-1.118l9.942-9.938H397.9a4.744,4.744,0,0,0-4.739,4.738v22.114a1.58,1.58,0,1,1-3.159,0V2312.9a7.907,7.907,0,0,1,7.9-7.9h47.386a1.58,1.58,0,0,1,1.115,2.7l-12.172,12.171v18.3A7.907,7.907,0,0,1,426.33,2346.068Z" transform="translate(-390 -2305)"/>
    </g>
    <g id="Group_417" data-name="Group 417" transform="translate(384 2333.432)">
      <path id="Path_315" data-name="Path 315" d="M432.967,2355.068H404.535a7.907,7.907,0,0,1-7.9-7.9v-18.3L384.462,2316.7a1.581,1.581,0,0,1,1.118-2.7h47.386a7.907,7.907,0,0,1,7.9,7.9v25.272A7.907,7.907,0,0,1,432.967,2355.068Zm-43.573-37.909,9.939,9.938a1.581,1.581,0,0,1,.464,1.118v18.955a4.744,4.744,0,0,0,4.739,4.739h28.432a4.744,4.744,0,0,0,4.739-4.739V2321.9a4.745,4.745,0,0,0-4.739-4.739Z" transform="translate(-384 -2314)" fill="#ec1c24"/>
    </g>
    <g id="Group_418" data-name="Group 418" transform="translate(406.115 2342.909)">
      <path id="Path_316" data-name="Path 316" d="M414.693,2320.159H392.58a1.579,1.579,0,1,1,0-3.159h22.114a1.579,1.579,0,1,1,0,3.159Z" transform="translate(-391 -2317)" fill="#ec1c24"/>
    </g>
    <g id="Group_419" data-name="Group 419" transform="translate(406.115 2352.386)">
      <path id="Path_317" data-name="Path 317" d="M414.693,2323.159H392.58a1.579,1.579,0,1,1,0-3.159h22.114a1.579,1.579,0,1,1,0,3.159Z" transform="translate(-391 -2320)" fill="#ec1c24"/>
    </g>
    <g id="Group_420" data-name="Group 420" transform="translate(406.115 2361.864)">
      <path id="Path_318" data-name="Path 318" d="M414.693,2326.159H392.58a1.58,1.58,0,1,1,0-3.159h22.114a1.58,1.58,0,0,1,0,3.159Z" transform="translate(-391 -2323)" fill="#ec1c24"/>
    </g>
    <g id="Group_422" data-name="Group 422" transform="translate(412.433 2314.477)">
      <path id="Path_320" data-name="Path 320" d="M416.693,2311.159H394.579a1.58,1.58,0,0,1,0-3.159h22.114a1.58,1.58,0,0,1,0,3.159Z" transform="translate(-393 -2307.999)"/>
    </g>
    <g id="Group_423" data-name="Group 423" transform="translate(412.433 2323.955)">
      <path id="Path_321" data-name="Path 321" d="M416.693,2314.159H394.579a1.58,1.58,0,0,1,0-3.159h22.114a1.58,1.58,0,0,1,0,3.159Z" transform="translate(-393 -2311)"/>
    </g>
  </g>
</svg>
