<svg xmlns="http://www.w3.org/2000/svg" width="61" height="76" viewBox="0 0 61 76">
  <g id="Group_1477" data-name="Group 1477" transform="translate(-388 -935)">
    <g id="Group_440" data-name="Group 440" transform="translate(-93 -1240)">
      <g id="Rectangle_160" data-name="Rectangle 160" transform="translate(481 2175)" fill="#fff" stroke="#707070" stroke-width="3">
        <rect width="61" height="76" stroke="none"/>
        <rect x="1.5" y="1.5" width="58" height="73" fill="none"/>
      </g>
      <line id="Line_23" data-name="Line 23" y2="75" transform="translate(492.5 2175.5)" fill="none" stroke="#707070" stroke-width="3"/>
      <g id="Rectangle_161" data-name="Rectangle 161" transform="translate(510 2190)" fill="#fff" stroke="#ec1c24" stroke-width="2">
        <rect width="19" height="11" stroke="none"/>
        <rect x="1" y="1" width="17" height="9" fill="none"/>
      </g>
    </g>
  </g>
</svg>
